{
  "info": {
    "name": "Taksol App - Reviews API",
    "_postman_id": "reviews-12345-67890",
    "description": "Collection API untuk Taksol App - Reviews Module",
    "schema": "https://schema.getpostman.com/json/collection/v2.1.0/collection.json"
  },
  "item": [
    {
      "name": "Create Review",
      "request": {
        "method": "POST",
        "header": [
          { "key": "Content-Type", "value": "application/json" },
          { "key": "Authorization", "value": "Bearer <access_token>" }
        ],
        "body": {
          "mode": "raw",
          "raw": "{\n  \"orderId\": 10,\n  \"revieweeId\": 5,\n  \"rating\": 5,\n  \"comment\": \"Driver sangat ramah dan tepat waktu\"\n}"
        },
        "url": {
          "raw": "https://mock-server-url/reviews",
          "protocol": "https",
          "host": ["mock-server-url"],
          "path": ["reviews"]
        },
        "description": "Membuat review terhadap user lain berdasarkan order yang sudah COMPLETED. reviewerId diambil dari JWT."
      },
      "response": [
        {
          "name": "201 Created",
          "status": "Created",
          "code": 201,
          "body": "{\n  \"id\": 15,\n  \"orderId\": 10,\n  \"reviewerId\": 3,\n  \"revieweeId\": 5,\n  \"rating\": 5,\n  \"comment\": \"Driver sangat ramah dan tepat waktu\",\n  \"createdAt\": \"2026-02-12T12:30:00\"\n}"
        },
        {
          "name": "400 Bad Request",
          "status": "Bad Request",
          "code": 400,
          "body": "{\n  \"timestamp\": \"2026-02-12T12:30:00\",\n  \"status\": 400,\n  \"error\": \"Bad Request\",\n  \"message\": \"Rating harus antara 1 sampai 5 atau field wajib kosong\",\n  \"path\": \"/reviews\"\n}"
        },
        {
          "name": "401 Unauthorized",
          "status": "Unauthorized",
          "code": 401,
          "body": "{\n  \"timestamp\": \"2026-02-12T12:30:00\",\n  \"status\": 401,\n  \"error\": \"Unauthorized\",\n  \"message\": \"Token invalid atau expired\",\n  \"path\": \"/reviews\"\n}"
        },
        {
          "name": "403 Forbidden",
          "status": "Forbidden",
          "code": 403,
          "body": "{\n  \"timestamp\": \"2026-02-12T12:30:00\",\n  \"status\": 403,\n  \"error\": \"Forbidden\",\n  \"message\": \"User bukan bagian dari order atau role tidak diizinkan\",\n  \"path\": \"/reviews\"\n}"
        },
        {
          "name": "404 Not Found",
          "status": "Not Found",
          "code": 404,
          "body": "{\n  \"timestamp\": \"2026-02-12T12:30:00\",\n  \"status\": 404,\n  \"error\": \"Not Found\",\n  \"message\": \"Order atau reviewee tidak ditemukan\",\n  \"path\": \"/reviews\"\n}"
        },
        {
          "name": "409 Conflict",
          "status": "Conflict",
          "code": 409,
          "body": "{\n  \"timestamp\": \"2026-02-12T12:30:00\",\n  \"status\": 409,\n  \"error\": \"Conflict\",\n  \"message\": \"Order belum COMPLETED atau review sudah pernah dibuat\",\n  \"path\": \"/reviews\"\n}"
        },
        {
          "name": "500 Internal Server Error",
          "status": "Internal Server Error",
          "code": 500,
          "body": "{\n  \"timestamp\": \"2026-02-12T12:30:00\",\n  \"status\": 500,\n  \"error\": \"Internal Server Error\",\n  \"message\": \"Database failure atau unexpected server error\",\n  \"path\": \"/reviews\"\n}"
        }
      ]
    },
    {
      "name": "Get Reviews by User",
      "request": {
        "method": "GET",
        "header": [{ "key": "Content-Type", "value": "application/json" }],
        "url": {
          "raw": "https://mock-server-url/users/5/reviews",
          "protocol": "https",
          "host": ["mock-server-url"],
          "path": ["users", "5", "reviews"]
        },
        "description": "Mengambil daftar review yang diterima oleh user tertentu."
      },
      "response": [
        {
          "name": "200 OK",
          "status": "OK",
          "code": 200,
          "body": "{\n  \"content\": [\n    {\n      \"id\": 15,\n      \"orderId\": 10,\n      \"reviewerId\": 3,\n      \"rating\": 5,\n      \"comment\": \"Driver sangat ramah\",\n      \"createdAt\": \"2026-02-12T12:30:00\"\n    }\n  ],\n  \"page\": 1,\n  \"size\": 10,\n  \"totalElements\": 25,\n  \"totalPages\": 3\n}"
        },
        {
          "name": "404 User Not Found",
          "status": "Not Found",
          "code": 404,
          "body": "{\n  \"timestamp\": \"2026-02-12T12:30:00\",\n  \"status\": 404,\n  \"error\": \"Not Found\",\n  \"message\": \"User tidak ditemukan\",\n  \"path\": \"/users/5/reviews\"\n}"
        }
      ]
    }
  ]
}
