{
  "info": {
    "name": "Taksol App - Wallet & Transactions API",
    "_postman_id": "wallet-12345-67890",
    "description": "Collection API untuk Taksol App - Wallet & Transactions Module",
    "schema": "https://schema.getpostman.com/json/collection/v2.1.0/collection.json"
  },
  "item": [
    {
      "name": "Get My Wallet",
      "request": {
        "method": "GET",
        "header": [
          { "key": "Authorization", "value": "Bearer <access_token>" }
        ],
        "url": {
          "raw": "https://mock-server-url/wallet/me",
          "protocol": "https",
          "host": ["mock-server-url"],
          "path": ["wallet", "me"]
        },
        "description": "Mengambil informasi wallet user yang sedang login."
      },
      "response": [
        {
          "name": "200 OK",
          "status": "OK",
          "code": 200,
          "body": "{\n  \"userId\": 5,\n  \"balance\": 150000,\n  \"updatedAt\": \"2026-02-12T13:00:00\"\n}"
        },
        {
          "name": "401 Unauthorized",
          "status": "Unauthorized",
          "code": 401,
          "body": "{\n  \"timestamp\": \"2026-02-12T13:00:00\",\n  \"status\": 401,\n  \"error\": \"Unauthorized\",\n  \"message\": \"Token tidak valid atau expired\",\n  \"path\": \"/wallet/me\"\n}"
        },
        {
          "name": "403 Forbidden",
          "status": "Forbidden",
          "code": 403,
          "body": "{\n  \"timestamp\": \"2026-02-12T13:00:00\",\n  \"status\": 403,\n  \"error\": \"Forbidden\",\n  \"message\": \"Role tidak diizinkan\",\n  \"path\": \"/wallet/me\"\n}"
        },
        {
          "name": "404 Not Found",
          "status": "Not Found",
          "code": 404,
          "body": "{\n  \"timestamp\": \"2026-02-12T13:00:00\",\n  \"status\": 404,\n  \"error\": \"Not Found\",\n  \"message\": \"Wallet tidak ditemukan\",\n  \"path\": \"/wallet/me\"\n}"
        },
        {
          "name": "500 Internal Server Error",
          "status": "Internal Server Error",
          "code": 500,
          "body": "{\n  \"timestamp\": \"2026-02-12T13:00:00\",\n  \"status\": 500,\n  \"error\": \"Internal Server Error\",\n  \"message\": \"Database error atau unexpected server failure\",\n  \"path\": \"/wallet/me\"\n}"
        }
      ]
    },
    {
      "name": "Topup Wallet",
      "request": {
        "method": "POST",
        "header": [
          { "key": "Content-Type", "value": "application/json" },
          { "key": "Authorization", "value": "Bearer <access_token>" }
        ],
        "body": {
          "mode": "raw",
          "raw": "{\n  \"amount\": 100000\n}"
        },
        "url": {
          "raw": "https://mock-server-url/wallet/topup",
          "protocol": "https",
          "host": ["mock-server-url"],
          "path": ["wallet", "topup"]
        },
        "description": "Melakukan topup saldo wallet user yang sedang login."
      },
      "response": [
        {
          "name": "201 Created",
          "status": "Created",
          "code": 201,
          "body": "{\n  \"walletId\": 5,\n  \"type\": \"TOPUP\",\n  \"amount\": 100000,\n  \"balanceAfter\": 250000,\n  \"createdAt\": \"2026-02-12T13:05:00\"\n}"
        },
        {
          "name": "400 Bad Request",
          "status": "Bad Request",
          "code": 400,
          "body": "{\n  \"timestamp\": \"2026-02-12T13:05:00\",\n  \"status\": 400,\n  \"error\": \"Bad Request\",\n  \"message\": \"Amount harus lebih dari 0 atau format salah\",\n  \"path\": \"/wallet/topup\"\n}"
        },
        {
          "name": "401 Unauthorized",
          "status": "Unauthorized",
          "code": 401,
          "body": "{\n  \"timestamp\": \"2026-02-12T13:05:00\",\n  \"status\": 401,\n  \"error\": \"Unauthorized\",\n  \"message\": \"Token invalid atau expired\",\n  \"path\": \"/wallet/topup\"\n}"
        },
        {
          "name": "403 Forbidden",
          "status": "Forbidden",
          "code": 403,
          "body": "{\n  \"timestamp\": \"2026-02-12T13:05:00\",\n  \"status\": 403,\n  \"error\": \"Forbidden\",\n  \"message\": \"Role tidak diizinkan\",\n  \"path\": \"/wallet/topup\"\n}"
        },
        {
          "name": "404 Not Found",
          "status": "Not Found",
          "code": 404,
          "body": "{\n  \"timestamp\": \"2026-02-12T13:05:00\",\n  \"status\": 404,\n  \"error\": \"Not Found\",\n  \"message\": \"Wallet tidak ditemukan\",\n  \"path\": \"/wallet/topup\"\n}"
        },
        {
          "name": "500 Internal Server Error",
          "status": "Internal Server Error",
          "code": 500,
          "body": "{\n  \"timestamp\": \"2026-02-12T13:05:00\",\n  \"status\": 500,\n  \"error\": \"Internal Server Error\",\n  \"message\": \"Database error atau gagal commit transaction\",\n  \"path\": \"/wallet/topup\"\n}"
        }
      ]
    },
    {
      "name": "Get My Wallet Transactions",
      "request": {
        "method": "GET",
        "header": [
          { "key": "Authorization", "value": "Bearer <access_token>" }
        ],
        "url": {
          "raw": "https://mock-server-url/wallet/me/transactions?page=1&size=10",
          "protocol": "https",
          "host": ["mock-server-url"],
          "path": ["wallet", "me", "transactions"],
          "query": [
            { "key": "page", "value": "1" },
            { "key": "size", "value": "10" }
          ]
        },
        "description": "Mengambil daftar transaksi wallet milik user yang sedang login."
      },
      "response": [
        {
          "name": "200 OK",
          "status": "OK",
          "code": 200,
          "body": "{\n  \"content\": [\n    {\n      \"id\": 101,\n      \"type\": \"TOPUP\",\n      \"amount\": 100000,\n      \"orderId\": null,\n      \"createdAt\": \"2026-02-12T13:05:00\"\n    },\n    {\n      \"id\": 102,\n      \"type\": \"PAYMENT\",\n      \"amount\": 50000,\n      \"orderId\": 10,\n      \"createdAt\": \"2026-02-12T13:10:00\"\n    }\n  ],\n  \"page\": 1,\n  \"size\": 10,\n  \"totalElements\": 12,\n  \"totalPages\": 2\n}"
        },
        {
          "name": "400 Bad Request",
          "status": "Bad Request",
          "code": 400,
          "body": "{\n  \"timestamp\": \"2026-02-12T13:10:00\",\n  \"status\": 400,\n  \"error\": \"Bad Request\",\n  \"message\": \"Parameter page atau size tidak valid\",\n  \"path\": \"/wallet/me/transactions\"\n}"
        },
        {
          "name": "401 Unauthorized",
          "status": "Unauthorized",
          "code": 401,
          "body": "{\n  \"timestamp\": \"2026-02-12T13:10:00\",\n  \"status\": 401,\n  \"error\": \"Unauthorized\",\n  \"message\": \"Token invalid\",\n  \"path\": \"/wallet/me/transactions\"\n}"
        },
        {
          "name": "403 Forbidden",
          "status": "Forbidden",
          "code": 403,
          "body": "{\n  \"timestamp\": \"2026-02-12T13:10:00\",\n  \"status\": 403,\n  \"error\": \"Forbidden\",\n  \"message\": \"Role tidak diizinkan\",\n  \"path\": \"/wallet/me/transactions\"\n}"
        },
        {
          "name": "404 Not Found",
          "status": "Not Found",
          "code": 404,
          "body": "{\n  \"timestamp\": \"2026-02-12T13:10:00\",\n  \"status\": 404,\n  \"error\": \"Not Found\",\n  \"message\": \"Wallet tidak ditemukan\",\n  \"path\": \"/wallet/me/transactions\"\n}"
        },
        {
          "name": "500 Internal Server Error",
          "status": "Internal Server Error",
          "code": 500,
          "body": "{\n  \"timestamp\": \"2026-02-12T13:10:00\",\n  \"status\": 500,\n  \"error\": \"Internal Server Error\",\n  \"message\": \"Database error\",\n  \"path\": \"/wallet/me/transactions\"\n}"
        }
      ]
    }
  ]
}
